step : 1  loss: 2.8848252296447754
step : 200  loss: 2.175457239151001
step : 400  loss: 2.1080551147460938
step : 600  loss: 2.09360408782959
step : 800  loss: 2.088057518005371
step : 1000  loss: 2.085171699523926
step : 1200  loss: 2.0836126804351807
step : 1400  loss: 2.0825164318084717
step : 1600  loss: 2.0817978382110596
step : 1800  loss: 2.08132266998291
step : 2000  loss: 2.0809712409973145
step : 2200  loss: 2.080690383911133
step : 2400  loss: 2.0804567337036133
step : 2600  loss: 2.0803310871124268
step : 2800  loss: 2.080242872238159
step : 3000  loss: 2.0800509452819824
step : 3200  loss: 2.0799896717071533
step : 3400  loss: 2.079885721206665
step : 3600  loss: 2.0798861980438232
step : 3800  loss: 2.079831123352051
step : 4000  loss: 2.0797970294952393
step : 4200  loss: 2.0796990394592285
step : 4400  loss: 2.0796701908111572
step : 4600  loss: 2.0796899795532227
step : 4800  loss: 2.0798933506011963
step : 5000  loss: 2.0795950889587402
step : 5200  loss: 2.079632520675659
step : 5400  loss: 2.079563617706299
step : 5600  loss: 2.079549789428711
step : 5800  loss: 2.079704761505127
step : 6000  loss: 2.079542875289917
step : 6200  loss: 2.0795176029205322
step : 6400  loss: 2.0796260833740234
step : 6600  loss: 2.079580307006836
step : 6800  loss: 2.079495429992676
step : 7000  loss: 2.079507827758789
step : 7200  loss: 2.0794997215270996
step : 7400  loss: 2.0796170234680176
step : 7600  loss: 2.079476833343506
step : 7800  loss: 2.0794737339019775
step : 8000  loss: 2.079469680786133
step : 8200  loss: 2.0795464515686035
step : 8400  loss: 2.0794880390167236
step : 8600  loss: 2.0794756412506104
step : 8800  loss: 2.079507350921631
step : 9000  loss: 2.079458236694336
step : 9200  loss: 2.079456329345703
step : 9400  loss: 2.079498767852783
step : 9600  loss: 2.0794644355773926
step : 9800  loss: 2.079617977142334
step : 10000  loss: 2.0795013904571533
step : 10200  loss: 2.0794496536254883
step : 10400  loss: 2.079448938369751
step : 10600  loss: 2.0795133113861084
step : 10800  loss: 2.079477071762085
step : 11000  loss: 2.0795350074768066
step : 11200  loss: 2.0795655250549316
step : 11400  loss: 2.079462766647339
step : 11600  loss: 2.0794458389282227
step : 11800  loss: 2.079456329345703
step : 12000  loss: 2.079514741897583
step : 12200  loss: 2.0796079635620117
step : 12400  loss: 2.079444169998169
step : 12600  loss: 2.07944393157959
step : 12800  loss: 2.07944393157959
step : 13000  loss: 2.0794434547424316
step : 13200  loss: 2.0794434547424316
step : 13400  loss: 2.0794432163238525
step : 13600  loss: 2.0794429779052734
step : 13800  loss: 2.0794429779052734
step : 14000  loss: 2.079461097717285
step : 14200  loss: 2.079481363296509
step : 14400  loss: 2.0794835090637207
step : 14600  loss: 2.07955265045166
step : 14800  loss: 2.0794425010681152
step : 15000  loss: 2.0794785022735596
step : 15200  loss: 2.0794425010681152
step : 15400  loss: 2.079442262649536
step : 15600  loss: 2.079599142074585
step : 15800  loss: 2.079442024230957
step : 16000  loss: 2.0795040130615234
step : 16200  loss: 2.079441785812378
step : 16400  loss: 2.079441785812378
step : 16600  loss: 2.0794570446014404
step : 16800  loss: 2.0794618129730225
step : 17000  loss: 2.0794577598571777
step : 17200  loss: 2.079441785812378
step : 17400  loss: 2.079479932785034
step : 17600  loss: 2.079441785812378
step : 17800  loss: 2.079441785812378
step : 18000  loss: 2.079441785812378
step : 18200  loss: 2.07953143119812
step : 18400  loss: 2.079441547393799
step : 18600  loss: 2.079441547393799
step : 18800  loss: 2.079441547393799
step : 19000  loss: 2.079474925994873
step : 19200  loss: 2.079441547393799
step : 19400  loss: 2.079441547393799
step : 19600  loss: 2.0794620513916016
epoch : 0  loss: 2.0794641971588135
step : 1  loss: 2.0795347690582275
step : 200  loss: 2.079442024230957
step : 400  loss: 2.0795528888702393
step : 600  loss: 2.0794968605041504
step : 800  loss: 2.079586982727051
step : 1000  loss: 2.0794754028320312
step : 1200  loss: 2.079441547393799
step : 1400  loss: 2.079441547393799
step : 1600  loss: 2.0795204639434814
step : 1800  loss: 2.0796804428100586
step : 2000  loss: 2.079441547393799
step : 2200  loss: 2.079441547393799
step : 2400  loss: 2.0795576572418213
step : 2600  loss: 2.07969069480896
step : 2800  loss: 2.079455852508545
step : 3000  loss: 2.079441547393799
step : 3200  loss: 2.079441547393799
step : 3400  loss: 2.0795862674713135
step : 3600  loss: 2.079540967941284
step : 3800  loss: 2.079441547393799
step : 4000  loss: 2.0795319080352783
step : 4200  loss: 2.079441547393799
step : 4400  loss: 2.079441547393799
step : 4600  loss: 2.079486131668091
step : 4800  loss: 2.079770803451538
step : 5000  loss: 2.079441547393799
step : 5200  loss: 2.079458236694336
step : 5400  loss: 2.0795140266418457
step : 5600  loss: 2.0794856548309326
step : 5800  loss: 2.079641103744507
step : 6000  loss: 2.0795252323150635
step : 6200  loss: 2.079441547393799
step : 6400  loss: 2.079441547393799
step : 6600  loss: 2.0794756412506104
step : 6800  loss: 2.079441547393799
step : 7000  loss: 2.079441547393799
step : 7200  loss: 2.079448699951172
step : 7400  loss: 2.0795884132385254
step : 7600  loss: 2.079641103744507
step : 7800  loss: 2.079441547393799
step : 8000  loss: 2.079441547393799
step : 8200  loss: 2.079441547393799
step : 8400  loss: 2.0794711112976074
step : 8600  loss: 2.079441547393799
step : 8800  loss: 2.079538345336914
step : 9000  loss: 2.079441547393799
step : 9200  loss: 2.0795254707336426
step : 9400  loss: 2.0794782638549805
step : 9600  loss: 2.079467296600342
step : 9800  loss: 2.0794832706451416
step : 10000  loss: 2.079462766647339
step : 10200  loss: 2.079441547393799
step : 10400  loss: 2.079441547393799
step : 10600  loss: 2.0794639587402344
step : 10800  loss: 2.0794472694396973
step : 11000  loss: 2.0795421600341797
step : 11200  loss: 2.07952618598938
step : 11400  loss: 2.0794641971588135
step : 11600  loss: 2.0794644355773926
step : 11800  loss: 2.079441547393799
step : 12000  loss: 2.079481840133667
step : 12200  loss: 2.0795087814331055
step : 12400  loss: 2.079441547393799
step : 12600  loss: 2.079441547393799
step : 12800  loss: 2.079441547393799
step : 13000  loss: 2.079524278640747
step : 13200  loss: 2.079448699951172
step : 13400  loss: 2.079441547393799
step : 13600  loss: 2.079540729522705
step : 13800  loss: 2.079580545425415
step : 14000  loss: 2.0794949531555176
step : 14200  loss: 2.079441547393799
step : 14400  loss: 2.0794994831085205
step : 14600  loss: 2.079505205154419
step : 14800  loss: 2.079441547393799
step : 15000  loss: 2.079470634460449
step : 15200  loss: 2.0794947147369385
step : 15400  loss: 2.079441547393799
step : 15600  loss: 2.0795164108276367
step : 15800  loss: 2.0795304775238037
step : 16000  loss: 2.0796005725860596
step : 16200  loss: 2.079441547393799
step : 16400  loss: 2.0794856548309326
step : 16600  loss: 2.0794520378112793
step : 16800  loss: 2.0794692039489746
step : 17000  loss: 2.079441547393799
step : 17200  loss: 2.079441547393799
step : 17400  loss: 2.079441547393799
step : 17600  loss: 2.079441547393799
step : 17800  loss: 2.07962965965271
step : 18000  loss: 2.079479694366455
step : 18200  loss: 2.079474687576294
step : 18400  loss: 2.079441547393799
step : 18600  loss: 2.079441547393799
step : 18800  loss: 2.079474925994873
step : 19000  loss: 2.079557418823242
step : 19200  loss: 2.079441547393799
step : 19400  loss: 2.079441547393799
step : 19600  loss: 2.079441547393799
epoch : 1  loss: 2.0795886516571045
step : 1  loss: 2.079441547393799
step : 200  loss: 2.079441547393799
step : 400  loss: 2.0795371532440186
step : 600  loss: 2.0795388221740723
step : 800  loss: 2.079441547393799
step : 1000  loss: 2.0794551372528076
step : 1200  loss: 2.07944655418396
step : 1400  loss: 2.079441547393799
step : 1600  loss: 2.079441547393799
step : 1800  loss: 2.079441547393799
step : 2000  loss: 2.079441547393799
step : 2200  loss: 2.0794498920440674
step : 2400  loss: 2.0795955657958984
step : 2600  loss: 2.0796873569488525
step : 2800  loss: 2.079524517059326
step : 3000  loss: 2.0794668197631836
step : 3200  loss: 2.079441547393799
step : 3400  loss: 2.079484462738037
step : 3600  loss: 2.079482316970825
step : 3800  loss: 2.0794548988342285
step : 4000  loss: 2.079502820968628
step : 4200  loss: 2.079441547393799
step : 4400  loss: 2.0794565677642822
step : 4600  loss: 2.079465627670288
step : 4800  loss: 2.079441547393799
step : 5000  loss: 2.079448699951172
step : 5200  loss: 2.0795140266418457
step : 5400  loss: 2.079479217529297
step : 5600  loss: 2.0794947147369385
step : 5800  loss: 2.0796234607696533
step : 6000  loss: 2.079441547393799
step : 6200  loss: 2.0797019004821777
step : 6400  loss: 2.0794506072998047
step : 6600  loss: 2.0794670581817627
step : 6800  loss: 2.0794882774353027
step : 7000  loss: 2.079488515853882
step : 7200  loss: 2.079457998275757
step : 7400  loss: 2.079441547393799
step : 7600  loss: 2.079542875289917
step : 7800  loss: 2.079451560974121
step : 8000  loss: 2.079441547393799
step : 8200  loss: 2.079441547393799
step : 8400  loss: 2.079441547393799
step : 8600  loss: 2.079453706741333
step : 8800  loss: 2.0794763565063477
step : 9000  loss: 2.079496383666992
step : 9200  loss: 2.079441547393799
step : 9400  loss: 2.079481363296509
step : 9600  loss: 2.0794548988342285
step : 9800  loss: 2.0794684886932373
step : 10000  loss: 2.0795094966888428
step : 10200  loss: 2.079472064971924
step : 10400  loss: 2.079441547393799
step : 10600  loss: 2.079441547393799
step : 10800  loss: 2.079441547393799
step : 11000  loss: 2.079587459564209
step : 11200  loss: 2.079448938369751
step : 11400  loss: 2.079451560974121
step : 11600  loss: 2.079441547393799
step : 11800  loss: 2.0794479846954346
step : 12000  loss: 2.079479217529297
step : 12200  loss: 2.0795083045959473
step : 12400  loss: 2.079441547393799
step : 12600  loss: 2.079453706741333
step : 12800  loss: 2.079441547393799
step : 13000  loss: 2.079441547393799
step : 13200  loss: 2.0794801712036133
step : 13400  loss: 2.079441547393799
step : 13600  loss: 2.079441547393799
step : 13800  loss: 2.079441547393799
step : 14000  loss: 2.079542875289917
step : 14200  loss: 2.079441547393799
step : 14400  loss: 2.0795211791992188
step : 14600  loss: 2.079441547393799
step : 14800  loss: 2.0794930458068848
step : 15000  loss: 2.079441547393799
step : 15200  loss: 2.079493284225464
step : 15400  loss: 2.0794689655303955
step : 15600  loss: 2.079481840133667
step : 15800  loss: 2.079441547393799
step : 16000  loss: 2.079441547393799
step : 16200  loss: 2.079441547393799
step : 16400  loss: 2.079441547393799
step : 16600  loss: 2.0794472694396973
step : 16800  loss: 2.079441547393799
step : 17000  loss: 2.0794684886932373
step : 17200  loss: 2.079441547393799
step : 17400  loss: 2.079441547393799
step : 17600  loss: 2.0794644355773926
step : 17800  loss: 2.079484224319458
step : 18000  loss: 2.0795786380767822
step : 18200  loss: 2.0795021057128906
step : 18400  loss: 2.0794897079467773
step : 18600  loss: 2.079441547393799
step : 18800  loss: 2.0794858932495117
step : 19000  loss: 2.0794920921325684
step : 19200  loss: 2.079441547393799
step : 19400  loss: 2.079441547393799
step : 19600  loss: 2.079441547393799
epoch : 2  loss: 2.079469680786133
